<?xml version="1.0" encoding="iso-8859-1"?>
<!-- Generator: Adobe Illustrator 19.0.0, SVG Export Plug-In . SVG Version: 6.00 Build 0)  -->
<svg version="1.1" id="Capa_1" xmlns="http://www.w3.org/2000/svg" xmlns:xlink="http://www.w3.org/1999/xlink" x="0px" y="0px"
	 viewBox="0 0 491.52 491.52" style="enable-background:new 0 0 491.52 491.52;" xml:space="preserve">
<circle style="fill:#EFC84A;" cx="245.76" cy="245.76" r="245.76"/>
<path style="opacity:0.1;enable-background:new    ;" d="M140.083,104.96v281.6L245.05,491.502c0.238,0.001,0.472,0.018,0.71,0.018
	c135.73,0,245.76-110.031,245.76-245.76c0-0.247-0.018-0.489-0.018-0.735L351.437,104.96H140.083z"/>
<rect x="140.11" y="104.96" style="fill:#EBF0F3;" width="211.3" height="281.6"/>
<g>
	<path style="fill:#64798A;" d="M331.761,321.494h-172.77V196.062h172.77V321.494z M164.111,316.374h162.53V201.182h-162.53V316.374
		z"/>
	<rect x="286.98" y="198.62" style="fill:#64798A;" width="5.12" height="120.31"/>
	<rect x="161.55" y="296.4" style="fill:#64798A;" width="167.65" height="5.12"/>
	<rect x="161.55" y="214.56" style="fill:#64798A;" width="167.65" height="5.12"/>
</g>
<g>
	<rect x="174.85" y="231.53" style="fill:#27A2DB;" width="50.883" height="5.12"/>
	<rect x="174.85" y="247.81" style="fill:#27A2DB;" width="37.555" height="5.12"/>
	<rect x="296.42" y="247.81" style="fill:#27A2DB;" width="25.856" height="5.12"/>
</g>
<rect x="286.72" y="336.65" style="fill:#E56353;" width="45.23" height="5.12"/>
<g>
	<rect x="296.42" y="305.96" style="fill:#27A2DB;" width="25.856" height="5.12"/>
	<rect x="296.42" y="231.53" style="fill:#27A2DB;" width="25.856" height="5.12"/>
</g>
<rect x="161.55" y="120.39" style="fill:#44C4A1;" width="48.52" height="5.12"/>
<g>
	<rect x="161.55" y="137.04" style="fill:#D5D6DB;" width="62.61" height="5.12"/>
	<rect x="161.55" y="153.96" style="fill:#D5D6DB;" width="62.61" height="5.12"/>
	<rect x="161.55" y="371.56" style="fill:#D5D6DB;" width="170.39" height="5.12"/>
</g>
<rect x="199.39" y="177.52" style="fill:#DC8744;" width="91.99" height="5.12"/>
<g>
</g>
<g>
</g>
<g>
</g>
<g>
</g>
<g>
</g>
<g>
</g>
<g>
</g>
<g>
</g>
<g>
</g>
<g>
</g>
<g>
</g>
<g>
</g>
<g>
</g>
<g>
</g>
<g>
</g>
</svg>
